{
    "env":"sandbox",
    "bundles_setup":{
        "nfs":{
            "mount_location":"/mnt/nfs/data",
            "nfs_location":"/mnt/exports/vmdata1/xpresso_platform_sb"
        }
    },
    "connectors": {
        "presto":{
            "presto_ip":"172.16.6.2",
            "presto_port":8082,
            "presto_user":"root",
            "DSN":{
                "testing_mysql":{
                    "catalog":"mysql",
                    "schema":"presto"
                },
                "testing_cassandra":{
                    "catalog":"cassandra",
                    "schema":"test_db"
                },
                "testing_sqlserver":{
                    "catalog":"sqlserver",
                    "schema":"dbo"
                },
                "testing_mongodb":{
                    "catalog":"mongo",
                    "schema":"test"
                }
            }
        },
        "alluxio":{
            "alluxio_ip":"172.16.6.2",
            "alluxio_port":"39999"
        }
    },
    "controller":{
        "server_url":"https://controllersb.xpresso.ai:5050"
    },
    "mongodb":{
        "mongo_url":"mongodb://172.16.6.1:27017/?replicaSet=rs0"
    },
    "jenkins":{
        "master_host":"http://172.16.6.1:8080"
    },
    "ldap":{
        "ldap_url":"ldap://172.16.6.1:30389"
    },
    "gateway":{
        "admin_url":"http://172.16.6.1:8001",
        "proxy_url":"http://172.16.6.1:8000"
    },
    "pachyderm_server":{
        "cluster_ip":"172.16.6.1",
        "port":30650
    },
    "docker_registry":{
        "host":"dockerregistrysb.xpresso.ai"
    },
    "logging":{
        "project_name":"default",
        "logstash":{
            "url":"http://172.16.6.1:30050"
        },
        "kibana":{
            "url":"http://172.16.6.1:30560"
        },
        "elastic_search":{
            "url":"http://172.16.6.1:30920"
        },
        "log_handler": {
          "host": "172.16.6.1",
          "port": 30050
        }
    },
    "data_versioning": {
		"tool": "pachyderm",
		"server": {
			"cluster_ip": "172.16.6.1",
			"port": 30650
		}
	}
}