{
    "project_field_types" : {
        "name" : "str",
        "projectDescription" : "str",
        "owner" : "dict",
        "developers" : "list",
        "components" : "list",
        "pipelines" : "list",
        "persistent_volume_size" : "int",
        "service_mesh": "list"
    },
    "project_key_list" : [ "name", "projectDescription", "owner", "developers", "components", "activationStatus", "linux_uid", "pipelines", "environments", "bigdata_environments", "persistent_volume_size", "service_mesh"],
    "project_field_flags" : {
        "name" : true,
        "projectDescription" : true,
        "owner" : true,
        "developers" : false,
        "components" : false,
        "environments": false,
        "bigdata_environments": false,
        "persistent_volume_size": true
    },
    "project_output_fields" : ["name", "projectDescription", "owner", "giturl", "activationStatus", "currentlyDeployed", "developers", "pipelines", "environments", "bigdata_environments", "service_mesh"],
    "component_flavors" : {
        "database": ["sql"],
        "job": ["java", "python", "pyspark"],
        "service": ["java", "python", "nodejs"],
        "inference_service": ["python"],
        "pipeline_job": ["python"],
        "library": ["python"],
        "pipeline": ["kubeflow", "pyspark"]
    },
    "component_fields":{
        "name" : "str",
        "type" : "str",
        "flavor" : "str",
        "description": "str"
    },
    "pipeline_fields" : {
        "name" : "str",
        "declarative_json" : "str",
        "components" : "list",
        "deploy_version_id" : "int",
        "flavor": "str"
    },
    "service_mesh_fields" : {
        "name" : "str",
        "components" : "list"
    },
    "sample_component" : {
        "name": "",
        "type": "",
        "flavor": "",
        "dockerPrefix": "",
        "versions": []
    },
    "sample_json" : {
        "name": "",
        "projectDescription": "",
        "owner": {
            "uid": "",
            "id": ""
        },
        "giturl": "",
        "developers": [],
        "currentlyDeployed": false,
        "environments": [],
        "bigdata_environments": [],
        "deployedClusters": [],
        "deployedEnvironments": [],
        "bigdata_deployedEnvironments": [],
        "components": [],
        "persistent_volume_size": 10,
        "activationStatus": true,
        "linux_uid" : 1000
    }
}
